…
## [1] 10765

As calculated above, among all the days in the two months, the mean of total steps taken each day is 10766, and the median is 10765.

What is the average daily activity pattern?

#calculate the mean of each interval across all days
activitydata$interval <- as.factor(activitydata$interval)
q2data <- activitydata %>%
  group_by(interval) %>%
  summarise(average = mean(steps, na.rm = T))
q2data

## # A tibble: 288 x 2
##    interval   average
##      <fctr>     <dbl>
##  1        0 1.7169811
##  2        5 0.3396226
##  3       10 0.1320755
##  4       15 0.1509434
##  5       20 0.0754717
##  6       25 2.0943396
##  7       30 0.5283019
##  8       35 0.8679245
##  9       40 0.0000000
## 10       45 1.4716981
## # ... with 278 more rows
…
## The following object is masked from 'package:base':
## 
##     date

nomissing$date <- ymd(nomissing$date)
nomissing$type <- ifelse(weekdays(nomissing$date) == "Saturday" | weekdays(nomissing$date) == "Sunday", "weekend", "weekday")
table(nomissing$type)

## 
## weekday weekend 
##   12960    4608

nomissing

## # A tibble: 17,568 x 4
## # Groups:   interval [288]
##        steps       date interval    type
##        <dbl>     <date>   <fctr>   <chr>
##  1 1.7169811 2012-10-01        0 weekday
##  2 0.3396226 2012-10-01        5 weekday
##  3 0.1320755 2012-10-01       10 weekday
##  4 0.1509434 2012-10-01       15 weekday
##  5 0.0754717 2012-10-01       20 weekday
##  6 2.0943396 2012-10-01       25 weekday
##  7 0.5283019 2012-10-01       30 weekday
##  8 0.8679245 2012-10-01       35 weekday
##  9 0.0000000 2012-10-01       40 weekday
## 10 1.4716981 2012-10-01       45 weekday
## # ... with 17,558 more rows
…
