…
```r
nomissing$date <- ymd(nomissing$date)
nomissing$type <- ifelse(weekdays(nomissing$date) == "Saturday" | weekdays(nomissing$date) == "Sunday", "weekend", "weekday")

#make the plot
plot1 <- nomissing %>%
  filter(type == "weekend")%>%
  group_by(interval)%>%
  summarise(mean = mean(steps))
plot1
```

```
## # A tibble: 288 x 2
##    interval        mean
##      <fctr>       <dbl>
##  1        0 0.214622642
##  2        5 0.042452830
##  3       10 0.016509434
##  4       15 0.018867925
##  5       20 0.009433962
##  6       25 3.511792453
##  7       30 0.066037736
##  8       35 0.108490566
##  9       40 0.000000000
## 10       45 0.558962264
## # ... with 278 more rows
```
…
